Data Visualization for Comparative Politics - Course Website - Mapping (Tidy) Data
…
dplyr::select

select(): select variables to reduce or create a new dataframe to only include a subset of specific variables.

gapminder_pop <- gapminder %>%
  select(country, 
         year, 
         pop) 

# A tibble: 1,704 × 3
   country      year      pop
   <fct>       <int>    <int>
 1 Afghanistan  1952  8425333
 2 Afghanistan  1957  9240934
 3 Afghanistan  1962 10267083
 4 Afghanistan  1967 11537966
 5 Afghanistan  1972 13079460
 6 Afghanistan  1977 14880372
 7 Afghanistan  1982 12881816
 8 Afghanistan  1987 13867957
 9 Afghanistan  1992 16317921
10 Afghanistan  1997 22227415
# ℹ 1,694 more rows

dplyr:: select - Range of variables

gapminder_lifeExp_1 <- gapminder %>%
  select(country: lifeExp)

# A tibble: 1,704 × 4
   country     continent  year lifeExp
   <fct>       <fct>     <int>   <dbl>
 1 Afghanistan Asia       1952    28.8
 2 Afghanistan Asia       1957    30.3
 3 Afghanistan Asia       1962    32.0
 4 Afghanistan Asia       1967    34.0
 5 Afghanistan Asia       1972    36.1
 6 Afghanistan Asia       1977    38.4
 7 Afghanistan Asia       1982    39.9
 8 Afghanistan Asia       1987    40.8
 9 Afghanistan Asia       1992    41.7
10 Afghanistan Asia       1997    41.8
# ℹ 1,694 more rows

gapminder_lifeExp_2 <- gapminder %>%
  select(1:4)

# A tibble: 1,704 × 4
   country     continent  year lifeExp
   <fct>       <fct>     <int>   <dbl>
 1 Afghanistan Asia       1952    28.8
 2 Afghanistan Asia       1957    30.3
 3 Afghanistan Asia       1962    32.0
 4 Afghanistan Asia       1967    34.0
 5 Afghanistan Asia       1972    36.1
 6 Afghanistan Asia       1977    38.4
 7 Afghanistan Asia       1982    39.9
 8 Afghanistan Asia       1987    40.8
 9 Afghanistan Asia       1992    41.7
10 Afghanistan Asia       1997    41.8
# ℹ 1,694 more rows

dplyr:: select - Unselect variables

gapminder %>%
  select(-c(continent, lifeExp, gdpPercap))

# A tibble: 1,704 × 3
   country      year      pop
   <fct>       <int>    <int>
 1 Afghanistan  1952  8425333
 2 Afghanistan  1957  9240934
 3 Afghanistan  1962 10267083
 4 Afghanistan  1967 11537966
 5 Afghanistan  1972 13079460
 6 Afghanistan  1977 14880372
 7 Afghanistan  1982 12881816
 8 Afghanistan  1987 13867957
 9 Afghanistan  1992 16317921
10 Afghanistan  1997 22227415
# ℹ 1,694 more rows
…
